<?xml version="1.0" encoding="UTF-8"?>
<svg width="500px" height="400px" viewBox="0 0 500 400" version="1.1" xmlns="http://www.w3.org/2000/svg" xmlns:xlink="http://www.w3.org/1999/xlink">
    <!-- Generator: Sketch 49.1 (51147) - http://www.bohemiancoding.com/sketch -->
    <title>Almost finsihed!</title>
    <desc>Created with Sketch.</desc>
    <defs>
        <circle id="path-1" cx="150" cy="150" r="150"></circle>
        <circle id="path-2" cx="150" cy="150" r="150"></circle>
    </defs>
    <g id="step03" stroke="none" stroke-width="1" fill="none" fill-rule="evenodd">
        <rect id="bg" fill-opacity="0" fill="#000000" x="0" y="0" width="500" height="400"></rect>
        <g id="Group-3" transform="translate(100.000000, 50.000000)">
            <g id="Oval-7">
                <circle stroke="#AE8EFF" stroke-width="15" cx="150" cy="150" r="157.5"></circle>
            </g>
            <g id="switch-and-machinary">
                <g id="switch-on">
                    <mask id="mask-3" fill="white">
                        <use xlink:href="#path-2"></use>
                    </mask>
                    <use id="Mask" fill="#815CE3" xlink:href="#path-2"></use>
                    <g id="Group-2" mask="url(#mask-3)">
                        <g transform="translate(-219.532663, -123.989950)">
                            <path d="M237.034874,33.8765399 C234.642637,31.9473574 224.187224,42.4676135 226.200876,45.3538154 C228.217674,48.2400174 195.856214,53.846131 198.907697,57.3373829 C234.805453,98.4085917 274.96682,120.773682 299.136079,141.438981 C292.04631,193.35585 279.868629,230.387269 274.446738,243.034337 C246.413446,308.42462 318.05031,307.492254 325.308896,307.490676 C325.522847,307.490676 325.73837,307.484363 325.960187,307.470161 C327.753596,307.354966 331.590547,306.510724 333.475199,301.604654 C356.854013,283.837706 398.524479,287.854515 405.230884,262.249533 C416.180116,220.446157 398.635095,136.228063 379.720065,112.737164 C360.805036,89.2462655 279.153775,67.8426759 237.034874,33.8765399 Z" id="Fill-40" fill="#58CFDC" transform="translate(303.657935, 170.566752) rotate(153.000000) translate(-303.657935, -170.566752) "></path>
                            <g id="body" stroke-width="1" fill="none" transform="translate(161.967371, 357.435061) rotate(6.000000) translate(-161.967371, -357.435061) translate(30.467371, 66.435061)">
                                <path d="M261.519888,221.762652 C256.466495,154.767078 237.7831,88.2262005 195.180493,34.1363821 C144.464141,-39.685084 86.739474,30.2428736 75.3802309,36.8591153 C64.0209879,43.4753571 45.280415,39.4865529 29.093766,72.2546473 C12.9043942,105.022742 -17.5030906,163.370915 15.4800998,183.88671 C27.6125991,191.434126 32.9355425,242.153201 34.3159683,304.166173 C120.871658,299.619209 214.076262,276.783645 261.519888,221.762652" id="Fill-11" fill="#6BDBE8"></path>
                                <path d="M34.3151515,304.165356 C36.6866521,410.719521 27.3994091,550.643505 20.9247494,562.345812 C10.681827,580.860398 43.3981895,589.880814 48.1520818,570.514012 C52.905974,551.147211 73.9744837,447.215038 121.665879,418.040951 C169.357274,388.866864 196.829653,532.542774 196.829653,532.542774 C196.829653,532.542774 207.271335,540.738201 211.728449,529.40074 C229.712102,483.653376 271.329079,351.848583 261.519072,221.761835 C214.075445,276.785551 120.870841,299.621115 34.3151515,304.165356" id="Fill-13" fill="#2B2669"></path>
                            </g>
                            <path d="M454.046624,216.150754 C456.922482,216.150754 463.230131,210.946985 463.6038,203.910395 C463.65379,202.969037 464.015075,202.172519 464.015075,201.061218 C464.015075,194.834504 461.177258,191.276382 457.676633,191.276382 C454.176007,191.276382 450.432698,195.724035 451.33819,201.061218 C451.58745,202.530419 452.54826,206.343925 452.47762,207.390005 C452.226184,211.113434 451.509638,216.150754 454.046624,216.150754 Z" id="thumb" fill="#B4835A" transform="translate(457.608040, 203.713568) rotate(10.000000) translate(-457.608040, -203.713568) "></path>
                            <g id="switch-on" stroke-width="1" fill="none" transform="translate(271.542714, 188.060302)">
                                <path d="M33.0591847,234.144707 L139.804335,234.144707 C143.000854,234.144707 145.592145,236.721782 145.592145,239.900765 C145.592145,243.079747 143.000854,245.656822 139.804335,245.656822 L33.0591847,245.656822 C29.8626656,245.656822 27.2713749,243.079747 27.2713749,239.900765 C27.2713749,238.374163 27.8811603,236.910087 28.9665851,235.830617 C30.05201,234.751147 31.5241621,234.144707 33.0591847,234.144707 Z" id="Rounded_Rectangle_3" fill="#3C4858" fill-rule="nonzero"></path>
                                <path d="M135.06758,222.911336 L135.06758,235.203933 C135.06758,235.49643 134.829156,235.733546 134.535046,235.733546 L38.3144599,235.733546 C38.0203492,235.733546 37.7819254,235.49643 37.7819254,235.203933 L37.7819254,222.911336 C37.7819254,196.194026 59.560061,174.535367 86.4247528,174.535367 C113.289445,174.535367 135.06758,196.194026 135.06758,222.911336 Z" id="Rounded_Rectangle_4" fill="#3C4858" fill-rule="nonzero"></path>
                                <ellipse id="Oval" fill="#E0E6ED" fill-rule="nonzero" cx="85.9062324" cy="212.974123" rx="15.5135725" ry="15.4284637"></ellipse>
                                <path d="M197.388137,18.5782675 C200.022864,20.0904054 200.931499,23.4370295 199.420177,26.0625359 L90.614959,214.632648 C89.0299808,217.089342 85.7894153,217.883535 83.2381365,216.440548 C80.6868576,214.997561 79.7165537,211.821729 81.0293369,209.211083 L189.834555,20.6967196 C191.355035,18.0764479 194.72012,17.172797 197.360109,18.6758278 L197.388137,18.5782675 Z" id="Rounded_Rectangle_5_copy" fill="#FFFFFF" fill-rule="nonzero"></path>
                                <path d="M207.688477,1.64458782 C213.343352,4.88735554 215.287665,12.0730342 212.032838,17.7002249 L197.598348,42.6059744 C194.339911,48.2326968 187.111904,50.1670628 181.454143,46.9265017 C175.796382,43.6859407 173.851345,36.4975871 177.109782,30.8708647 L191.530257,5.96511516 C193.093513,3.26146898 195.673512,1.28688929 198.70176,0.476466591 C201.730009,-0.333956105 204.958001,0.0862836763 207.674463,1.64458782 L207.688477,1.64458782 Z" id="Rounded_Rectangle_6_copy" fill="#3C4858" fill-rule="nonzero"></path>
                                <ellipse id="Oval" fill="#FF6461" fill-rule="nonzero" cx="116.400843" cy="213.489799" rx="5.5215425" ry="5.49125087"></ellipse>
                                <ellipse id="Ellipse_14_copy" fill="#66DDAD" fill-rule="nonzero" cx="55.9301425" cy="213.489799" rx="5.5215425" ry="5.49125087"></ellipse>
                            </g>
                            <g id="Group" stroke-width="1" fill="none" transform="translate(423.572864, 210.060302)">
                                <path d="M22.1840008,8.90102154 C26.9486513,11.0967169 22.3993647,18.4563794 25.7953493,20.4745983 C35.4442955,26.2089248 40.3721566,29.1680482 45.1445877,17.6525391 C56.6248811,22.0282978 57.7420279,45.1765131 45.1445877,50.4691171 C32.5453223,55.7601917 24.3228649,55.1172624 17.3269105,48.2770345 C-1.87735547,29.5002459 7.06807588,1.93514496 22.1840008,8.90102154 Z" id="hand" fill="#CF9D72"></path>
                                <path d="M16.0521537,22.053517 C20.8168042,24.2492124 16.2675176,31.6088748 19.6635022,33.6270937 C29.3124484,39.3614203 34.2403095,42.3205436 39.0127406,30.8050345 C71.4915599,16.4918372 51.6101808,58.3290086 39.0127406,63.6216125 C26.4134752,68.9126871 18.1910178,68.2697578 11.1950634,61.42953 C-8.00920257,42.6527413 0.936228779,15.0876404 16.0521537,22.053517 Z" id="hand" fill="#CF9D72"></path>
                                <path d="M28.959799,0.929648241 C33.7244494,3.12534364 31.5971353,6.39992525 34.99312,8.41814411 C44.6420661,14.1524707 49.5699273,17.111594 54.3423584,5.59608491 C65.8226518,9.97184367 60.4614292,45.1612484 47.863989,50.4538524 C35.2647236,55.744927 28.4533898,55.7349403 21.4574355,48.8947125 C2.25316944,30.1179238 13.843874,-6.03622834 28.959799,0.929648241 Z" id="hand" fill="#CF9D72"></path>
                            </g>
                        </g>
                    </g>
                </g>
            </g>
        </g>
    </g>
</svg>