[
    {
        "name": "Access Bank",
        "code": "044",
        "country": "NG"
    },
    {
        "name": "ACCESS MOBILE",
        "code": "323",
        "country": "NG"
    },
    {
        "name": "AFRIBANK NIGERIA PLC",
        "code": "014",
        "country": "NG"
    },
    {
        "name": "ASO Savings and Loans",
        "code": "401",
        "country": "NG"
    },
    {
        "name": "Diamond Bank",
        "code": "063",
        "country": "NG"
    },
    {
        "name": "Ecobank Nigeria",
        "code": "050",
        "country": "NG"
    },
    {
        "name": "Enterprise Bank",
        "code": "084",
        "country": "NG"
    },
    {
        "name": "FBN MOBILE",
        "code": "309",
        "country": "NG"
    },
    {
        "name": "Fidelity Bank",
        "code": "070",
        "country": "NG"
    },
    {
        "name": "First Bank of Nigeria",
        "code": "011",
        "country": "NG"
    },
    {
        "name": "First City Monument Bank",
        "code": "214",
        "country": "NG"
    },
    {
        "name": "GTBank Mobile Money",
        "code": "315",
        "country": "NG"
    },
    {
        "name": "Guaranty Trust Bank",
        "code": "058",
        "country": "NG"
    },
    {
        "name": "Heritage Bank",
        "code": "030",
        "country": "NG"
    },
    {
        "name": "Keystone Bank",
        "code": "082",
        "country": "NG"
    },
    {
        "name": "Parkway",
        "code": "311",
        "country": "NG"
    },
    {
        "name": "PAYCOM",
        "code": "305",
        "country": "NG"
    },
    {
        "name": "Polaris Bank",
        "code": "076",
        "country": "NG"
    },
    {
        "name": "Stanbic IBTC Bank",
        "code": "221",
        "country": "NG"
    },
    {
        "name": "Stanbic Mobile",
        "code": "304",
        "country": "NG"
    },
    {
        "name": "Standard Chartered Bank",
        "code": "068",
        "country": "NG"
    },
    {
        "name": "Sterling Bank PLC",
        "code": "232",
        "country": "NG"
    },
    {
        "name": "Union Bank of Nigeria PLC",
        "code": "032",
        "country": "NG"
    },
    {
        "name": "United Bank For Africa",
        "code": "033",
        "country": "NG"
    },
    {
        "name": "Unity Bank",
        "code": "215",
        "country": "NG"
    },
    {
        "name": "Wema BANK",
        "code": "035",
        "country": "NG"
    },
    {
        "name": "Zenith Bank",
        "code": "057",
        "country": "NG"
    },
    {
        "name": "Zenith Mobile",
        "code": "322",
        "country": "NG"
    },
    {
        "name": "Coronation Merchant Bank",
        "code": "559",
        "country": "NG"
    },
    {
        "name": "FSDH Merchant Bank Limited",
        "code": "601",
        "country": "NG"
    },
    {
        "name": "PARRALEX BANK",
        "code": "526",
        "country": "NG"
    }
]
