[
    {
        "text": "A child educated only at school is an uneducated child.",
    },
    {
        "text": "We know what we are but know not what we may be.",
    },
    {
        "text": "Every action in our lives touches on some chord that will vibrate in eternity.",
    },
    {
        "text": "Do a little more than you’re paid to. Give a little more than you have to.",
    },
    {
        "text": "Wheresoever you go, go with all your heart.",
    },
    {
        "text": "Don’t cry because it’s over, smile because it happened.",
    },
    {
        "text": "Not only must we be good, but we must also be good for something.",
    },
    {
        "text": "Go confidently in the direction of your dreams. Live the life you have imagined.",
    },
    {
        "text": "Yesterday is history. Tomorrow is a mystery. Today is a gift. That’s why we call it ‘The Present’.",
    },
    {
        "text": "You’ve got to do your own growing, no matter how tall your grandfather was.",
    },
    {
        "text": "To me every hour of the day and night is an unspeakably perfect miracle.",
    },
    {
        "text": "We make a living by what we get, but we make a life by what we give.",
    },
    {
        "text": "Life is a succession of lessons which must be lived to be understood.",
    },
    {
        "text": "Why fit in when you were born to stand out?",
    },
    {
        "text": "The time is always right to do what is right.",
    },
    {
        "text": "Fall seven times, stand up eight times more.",
    }
]
